…
So to avoid missing values we have to fill the NA's, 
i decided to fill it with the mean of the same 5-minute interval of all days.
We will create another dataset. We will use the `time_series` to merge.

Merging with the 5-minute interval average and put them into NA.

```r
new_data <- merge(activity_data,time_series, by = "interval", 
                  suffixes = c("",".y"))
new_data <- new_data[order(new_data$date),] #Just ordering by date
time_series
```

```
## # A tibble: 288 x 2
##    interval  steps
##       <dbl>  <dbl>
##  1        0 1.72  
##  2        5 0.340 
##  3       10 0.132 
##  4       15 0.151 
##  5       20 0.0755
##  6       25 2.09  
##  7       30 0.528 
##  8       35 0.868 
##  9       40 0     
## 10       45 1.47  
## # ... with 278 more rows
```
…
